sourcedId,status,dateLastModified,schoolYearId,metadata.duration,title,courseCode,grade,orgSourcedId,subjects
course1,,,,,Course 1,,,12345,
course2,,,,,Course 2,,,12345,
course3,,,,,Course 3,,,54321,
